Plot PPV and NPV heatmaps — PPV_heatmap • BayesianReasoning
…
#> $PPV_melted
#> # A tibble: 10,201 × 8
#>    prevalence_1 prevalence_2 sensitivity specificity    FP   PPV prevalence_pct
#>           <dbl>        <dbl>       <dbl>       <dbl> <dbl> <dbl>          <dbl>
#>  1            1         1              1           1     0     1          1    
#>  2            1         1.07           1           1     0     1          0.933
#>  3            1         1.15           1           1     0     1          0.871
#>  4            1         1.23           1           1     0     1          0.813
#>  5            1         1.32           1           1     0     1          0.759
#>  6            1         1.41           1           1     0     1          0.708
#>  7            1         1.51           1           1     0     1          0.661
#>  8            1         1.62           1           1     0     1          0.617
#>  9            1         1.74           1           1     0     1          0.575
#> 10            1         1.86           1           1     0     1          0.537
#> # ℹ 10,191 more rows
#> # ℹ 1 more variable: PPV_calc <dbl>
…
